<?xml version="1.0" encoding="UTF-8" standalone="no"?>
<!DOCTYPE svg PUBLIC "-//W3C//DTD SVG 1.1//EN" "http://www.w3.org/Graphics/SVG/1.1/DTD/svg11.dtd">
<svg width="100%" height="100%" viewBox="0 0 600 400" version="1.1" xmlns="http://www.w3.org/2000/svg" xmlns:xlink="http://www.w3.org/1999/xlink" xml:space="preserve" xmlns:serif="http://www.serif.com/" style="fill-rule:evenodd;clip-rule:evenodd;stroke-linecap:round;stroke-linejoin:round;stroke-miterlimit:1.5;">
    <g id="positive" transform="matrix(3.78208,0,0,2.54831,-1337.5,-1716.93)">
        <g transform="matrix(0.962835,0,0,1,-174.655,-8.62188)">
            <path d="M548.274,758.377C548.274,758.377 561.525,753.268 567.222,754.752C572.919,756.237 581.951,763.42 583.992,763.994C586.033,764.568 586.452,754.895 594.416,750.619C602.339,746.364 604.399,742.843 609.999,749.982C613.733,754.742 626.271,758.833 630.656,758.499C635.04,758.165 636.56,753.17 641.253,751.654C645.946,750.138 649.356,738.481 650.376,735.493C651.395,732.504 653.969,730.999 658.705,731.956C663.441,732.913 665.023,725.892 667.164,721.374C669.305,716.856 677.018,720.737 681.692,718.758C686.366,716.78 690.78,730.832 695.895,729.129C701.01,727.426 710.85,711.718 712.555,714.159" style="fill:none;stroke:rgb(126,248,69);stroke-width:2.55px;"/>
        </g>
        <g transform="matrix(1,0,0,1,-199.373,-7.61719)">
            <path d="M552.368,758C552.368,758 564.323,753.41 570.02,754.894C575.717,756.378 584.848,763.901 586.889,764.476C588.93,765.05 589.146,754.524 597.172,750.366C605.197,746.208 607.02,744.161 610.385,749.188C613.75,754.216 626.639,759.028 631.023,758.694C635.408,758.36 637.188,753.519 641.881,752.003C646.574,750.487 650.193,738.979 651.213,735.991C652.232,733.003 653.969,730.999 658.705,731.956C663.441,732.913 665.023,725.892 667.164,721.374C669.305,716.856 675.469,721.134 680.143,719.155C684.816,717.177 689.641,731.12 694.756,729.417C699.871,727.714 709.678,711.579 711.383,714.02C713.088,716.462 711.383,838.581 711.383,838.581L552.739,838.531L552.368,758Z" style="fill:url(#_Linear1);"/>
        </g>
    </g>
    <defs>
        <linearGradient id="_Linear1" x1="0" y1="0" x2="1" y2="0" gradientUnits="userSpaceOnUse" gradientTransform="matrix(-117.938,1.44432e-14,-1.44432e-14,-117.938,686.73,795.798)"><stop offset="0" style="stop-color:rgb(74,99,91);stop-opacity:1"/><stop offset="1" style="stop-color:rgb(81,100,89);stop-opacity:1"/></linearGradient>
    </defs>
</svg>
